{"from":11,"to":18,"currentPage":2,"total":18,"totalPages":2,"queryTime":"0.054","totalTime":"0.070","partial":false,"canonicalUrl":"/v1/products(search=\"samsung\"&search=\"smartthings\")?show=name,sku,salePrice,image,longDescription,url&page=2&format=json&apiKey=7Ob7hGyGMBma1ilGiq7tc2XZ","products":[{"name":"Samsung - Multipurpose Sensor - White","sku":6265828,"salePrice":19.99,"image":"https://pisces.bbystatic.com/image2/BestBuy_US/images/products/6265/6265828_sa.jpg","longDescription":"Help protect your home and family with this Samsung multipurpose sensor. Receive alerts if doors or windows are opened unexpectedly. Set lights and other connected devices to turn on and off as people come and go.","url":"https://api.bestbuy.com/click/-/6265828/pdp"},{"name":"Samsung - Motion Sensor - White","sku":6265834,"salePrice":19.99,"image":"https://pisces.bbystatic.com/image2/BestBuy_US/images/products/6265/6265834_sa.jpg","longDescription":"Keep your home under control with this Samsung SmartThings motion sensor. It sends an alert to your smartphone via the SmartThings app when it detects unexpected movement, and the thermostat trigger feature lets you program it to adjust the temperature based on occupancy. The 131-foot range of this Samsung SmartThings motion sensor accommodates a wide variety of floor plans.","url":"https://api.bestbuy.com/click/-/6265834/pdp"},{"name":"Samsung - Water Leak Sensor - White","sku":6265831,"salePrice":17.99,"image":"https://pisces.bbystatic.com/image2/BestBuy_US/images/products/6265/6265831_sa.jpg","longDescription":"Keep pumps and pipes in check with this Samsung SmartThings water leak sensor. It sends notifications to your smartphone when excess water is detected, and its audible alert lets you know when there's unwanted presence of moisture. Place this Samsung SmartThings water leak sensor near your sump pump to detect pump failure.","url":"https://api.bestbuy.com/click/-/6265831/pdp"},{"name":"Samsung - 75\" Class 6 Series LED 4K UHD Smart Tizen TV","sku":6416415,"salePrice":799.99,"image":"https://pisces.bbystatic.com/image2/BestBuy_US/images/products/6416/6416415_sa.jpg","longDescription":"Enjoy a cinematic viewing experience with this 75-inch Samsung 4K smart UHD TV. Dolby Audio technology ensures accurate sound reproduction through the 20W speaker system, while the quad-core processor delivers ultra-realistic visuals for an immersive experience. This Samsung 4K smart UHD TV has Wi-Fi connectivity for smooth content streaming, and the slim profile allows for versatile placement in your home.","url":"https://api.bestbuy.com/click/-/6416415/pdp"},{"name":"Samsung - 82\" Class - 9 Series - 4K UHD TV - Smart - LED - with HDR","sku":6408869,"salePrice":1849.99,"image":"https://pisces.bbystatic.com/image2/BestBuy_US/images/products/6408/6408869_sa.jpg","longDescription":"Advance your home entertainment with this 82-inch Samsung Ultra HD 4K smart TV. The Crystal processor delivers sharp 4K resolutions, while the game enhancer provides lag-free, high-speed gameplay. This Samsung Ultra HD 4K smart TV features HDR for detailed pictures and videos and Motion Rate 240 for fast refresh rates to enhance motion clarity.","url":"https://api.bestbuy.com/click/-/6408869/pdp"},{"name":"Samsung - 65\" Class - 9 Series - 4K UHD TV - Smart - LED - with HDR","sku":6408872,"salePrice":899.99,"image":"https://pisces.bbystatic.com/image2/BestBuy_US/images/products/6408/6408872_sa.jpg","longDescription":"Watch your favorite movies in high definition with this 65-inch Samsung Crystal 4K smart TV. The ultra-fast processor and dynamic crystal display deliver true-to-life color and a high-resolution picture, so you never miss a detail. With next-gen apps and automatic game enhancer settings, this Samsung Crystal 4K smart TV is packed with entertainment options while ensuring an optimal gaming experience.","url":"https://api.bestbuy.com/click/-/6408872/pdp"},{"name":"ecobee - Smart Thermostat with Voice Control - Black","sku":6339170,"salePrice":249.99,"image":"https://pisces.bbystatic.com/image2/BestBuy_US/images/products/6339/6339170_sa.jpg","longDescription":"Help ensure optimal comfort with this ecobee smart thermostat. The voice compatibility lets you issue commands for hearing the news, ordering groceries and a variety of other tasks. This ecobee smart thermostat employs a built-in room sensor for determining cold and hot spots, while the digital display makes information easy to read.","url":"https://api.bestbuy.com/click/-/6339170/pdp"},{"name":"ecobee - Switch+ Smart Light Switch - White","sku":6203513,"salePrice":69.99,"image":"https://pisces.bbystatic.com/image2/BestBuy_US/images/products/6203/6203513_sa.jpg","longDescription":"Ask Alexa to turn on the lights and music with this ecobee Switch+ smart switch. Its built-in speaker lets you access Amazon Alexa with voice commands, and it automatically turns off a light bulb at sunrise or when no one&#8217;s in the room. Control this ecobee Switch+ smart switch remotely from your iOS or Android device.","url":"https://api.bestbuy.com/click/-/6203513/pdp"}]}
