{"from":1,"to":10,"currentPage":1,"total":18,"totalPages":2,"queryTime":"0.299","totalTime":"0.309","partial":false,"canonicalUrl":"/v1/products(search=\"samsung\"&search=\"smartthings\")?show=name,sku,salePrice,image,longDescription,url&format=json&apiKey=7Ob7hGyGMBma1ilGiq7tc2XZ","products":[{"name":"Samsung - SmartThings Hub - White","sku":6265835,"salePrice":69.99,"image":"https://pisces.bbystatic.com/image2/BestBuy_US/images/products/6265/6265835_sa.jpg","longDescription":"Connect wirelessly with a wide range of smart devices and make them work together.","url":"https://api.bestbuy.com/click/-/6265835/pdp"},{"name":"Samsung - SmartThings Item Tracker Pouch","sku":6305333,"salePrice":9.99,"image":"https://pisces.bbystatic.com/image2/BestBuy_US/images/products/6305/6305333_sa.jpg","longDescription":"Protect your SmartThings Tracker with this Samsung SmartThings tracker case. The case has a simple and secure strap for convenient carrying when moving around, and the stitched finish lends a unique look. This blue Samsung SmartThings tracker case is made from nylon for optimal strength and durability.","url":"https://api.bestbuy.com/click/-/6305333/pdp"},{"name":"Samsung - SmartThings Item Tracker - White","sku":6296424,"salePrice":99.99,"image":"https://pisces.bbystatic.com/image2/BestBuy_US/images/products/6296/6296424_ra.jpg","longDescription":"Secure yourself, a loved one or valuables with this smart, versatile Samsung SmartThings tracker. Its geo-fencing feature triggers smart home automations or alerts you when a pet or person who has it leaves or enters your designated zone. Double-press the button of this IP68-rated Samsung SmartThings tracker to notify authorized persons of your current location.","url":"https://api.bestbuy.com/click/-/6296424/pdp"},{"name":"Samsung - SmartThings Arrival Sensor - White","sku":4481808,"salePrice":19.99,"image":"https://pisces.bbystatic.com/image2/BestBuy_US/images/products/4481/4481808_sa.jpg","longDescription":"Samsung SmartThings Arrival Sensor: Stay informed when people enter and leave your home with this arrival sensor. Just connect to your SmartThings hub and your Apple&#174; iOS, Android or Windows mobile device to receive alerts on the go. You can also set up the sensor to trigger lights to turn on and unlock your door when you arrive home and shut lighting off and lock the door when you leave.","url":"https://api.bestbuy.com/click/-/4481808/pdp"},{"name":"Samsung - SmartThings Wi-Fi Smart Plug - White","sku":6342037,"salePrice":15.99,"image":"https://pisces.bbystatic.com/image2/BestBuy_US/images/products/6342/6342037_sa.jpg","longDescription":"Control your small appliances from a smartphone by plugging it into this Samsung SmartThings Wi-Fi smart plug. Compatibility with Alexa and Google Assistant enables seamless voice control. This Samsung SmartThings Wi-Fi smart plug lets you trigger lights to automatically turn on and off, and it extends the range of your devices when plugged into a wall outlet.","url":"https://api.bestbuy.com/click/-/6342037/pdp"},{"name":"Samsung - SmartThings Indoor 1080p Wi-Fi Wireless Security Camera - White","sku":6333397,"salePrice":63.99,"image":"https://pisces.bbystatic.com/image2/BestBuy_US/images/products/6333/6333397_sa.jpg","longDescription":"Know what's going on when you're away from home. The Full HD camera delivers a clear, detailed view, allowing you to monitor your home 24 hours a day from the convenience of your smartphone, tablet, Samsung TV or fridge. The SmartThings camera intuitively distinguishes between a person and an object, alerting you immediately if necessary while minimizing false triggers.","url":"https://api.bestbuy.com/click/-/6333397/pdp"},{"name":"Samsung - SmartThings AC1300 Dual-Band Mesh Wi-Fi System (3-Pack) - White","sku":6333829,"salePrice":279.99,"image":"https://pisces.bbystatic.com/image2/BestBuy_US/images/products/6333/6333829_sa.jpg","longDescription":"Strengthen the wireless network connection of a large home with this three-pack of Samsung SmartThings mesh Wi-Fi routers. The 4500 sq. ft. coverage ensures smooth connectivity for smart gadgets and appliances, and Plume AI security protects connected devices from cyber threats. These Samsung SmartThings mesh Wi-Fi routers use Plume cloud for optimal traffic control and enhanced network speed.","url":"https://api.bestbuy.com/click/-/6333829/pdp"},{"name":"Samsung - SmartThings White A19 Smart LED Bulb - White","sku":6348264,"salePrice":9.99,"image":"https://pisces.bbystatic.com/image2/BestBuy_US/images/products/6348/6348264_sa.jpg","longDescription":"Light up any room with the SmartThings smart bulb that's easy to control from your smartphone or tablet. Turn on the living room lamps as you're heading home, dim the lights from movie night, or schedule them to turn off before bed. It's a smarter way to light your house while saving money on energy costs.","url":"https://api.bestbuy.com/click/-/6348264/pdp"},{"name":"Samsung - Button - White","sku":6265829,"salePrice":14.99,"image":"https://pisces.bbystatic.com/image2/BestBuy_US/images/products/6265/6265829_sa.jpg","longDescription":"Operate a device remotely from a convenient spot with this Samsung smart home button. It's programmable with almost any lighting unit, household appliance or home theater component, and it supports automatic temperature adjustment when paired with a thermostat. This stick-on Samsung smart home button is easy to install onto almost any surface.","url":"https://api.bestbuy.com/click/-/6265829/pdp"},{"name":"Samsung - SmartThings AC1300 Dual-Band Mesh Wi-Fi Router - White","sku":6338640,"salePrice":119.99,"image":"https://pisces.bbystatic.com/image2/BestBuy_US/images/products/6338/6338640_sa.jpg","longDescription":"Provide a strong Internet connection for gadgets and smart devices with this Samsung SmartThings mesh Wi-Fi router. The Plume cloud and AI-based technology adapts to your environment and utilizes multiple channels for optimal traffic control and fast network performance. This Samsung SmartThings mesh Wi-Fi router has a 1500 sq. ft. coverage and is expandable with additional hubs to support larger homes.","url":"https://api.bestbuy.com/click/-/6338640/pdp"}]}
